<?xml version="1.0" encoding="UTF-8" standalone="no"?>
<svg width="12" height="12" viewBox="0 0 12 12" version="1.1" xmlns="http://www.w3.org/2000/svg" xmlns:xlink="http://www.w3.org/1999/xlink">
  <circle fill="rgba(9, 30, 66, 0.13)" stroke="rgba(9, 30, 66, 0.25)" cx="6" cy="6" r="6"></circle>
</svg>
